…
sample_data <- tibble(gene = rep(seq_len(n), times = genes),
                      cons_level = rep(sample(c("low", "medium", "high"), n, TRUE), times = genes)) %>%
  group_by(cons_level) %>%
  mutate(meth = case_when(cons_level == "low" ~ runif(n(), 0, 0.5),
                          cons_level == "medium" ~ runif(n(), 0.2, 0.8),
                          cons_level == "high" ~ runif(n(), 0.5, 1)))
```

``` r
sample_ii <- sample_data %>%
  ii_summarize(gene, meth) 

sample_ii
#> # A tibble: 500 x 3
#>     gene value length
#>    <int> <dbl>  <int>
#>  1     1 0.652      5
#>  2     2 0.233     10
#>  3     3 0.626      5
#>  4     4 0.784      3
#>  5     5 0.753      8
#>  6     6 0.796      1
#>  7     7 0.465      3
#>  8     8 0.617      7
#>  9     9 0.475      6
#> 10    10 0.162      9
#> # … with 490 more rows
```
…
